\relax 
\providecommand\hyper@newdestlabel[2]{}
\providecommand\HyperFirstAtBeginDocument{\AtBeginDocument}
\HyperFirstAtBeginDocument{\ifx\hyper@anchor\@undefined
\global\let\oldcontentsline\contentsline
\gdef\contentsline#1#2#3#4{\oldcontentsline{#1}{#2}{#3}}
\global\let\oldnewlabel\newlabel
\gdef\newlabel#1#2{\newlabelxx{#1}#2}
\gdef\newlabelxx#1#2#3#4#5#6{\oldnewlabel{#1}{{#2}{#3}}}
\AtEndDocument{\ifx\hyper@anchor\@undefined
\let\contentsline\oldcontentsline
\let\newlabel\oldnewlabel
\fi}
\fi}
\global\let\hyper@last\relax 
\gdef\HyperFirstAtBeginDocument#1{#1}
\providecommand\HyField@AuxAddToFields[1]{}
\providecommand\HyField@AuxAddToCoFields[2]{}
\@nameuse{bbl@beforestart}
\catcode `"\active 
\catcode `<\active 
\catcode `>\active 
\@nameuse{es@quoting}
\bibstyle{plain}
\babel@aux{spanish}{}
\@writefile{nav}{\headcommand {\slideentry {0}{0}{1}{1/1}{}{0}}}
\@writefile{nav}{\headcommand {\beamer@framepages {1}{1}}}
\@writefile{nav}{\headcommand {\slideentry {0}{0}{2}{2/2}{}{0}}}
\@writefile{nav}{\headcommand {\beamer@framepages {2}{2}}}
\@writefile{toc}{\beamer@sectionintoc {1}{Introducción}{3}{0}{1}}
\@writefile{nav}{\headcommand {\beamer@sectionpages {1}{2}}}
\@writefile{nav}{\headcommand {\beamer@subsectionpages {1}{2}}}
\@writefile{nav}{\headcommand {\sectionentry {1}{Introducción}{3}{Introducción}{0}}}
\@writefile{nav}{\headcommand {\slideentry {1}{0}{1}{3/3}{}{0}}}
\@writefile{nav}{\headcommand {\beamer@framepages {3}{3}}}
\@writefile{toc}{\beamer@subsectionintoc {1}{1}{Introducción}{4}{0}{1}}
\@writefile{nav}{\headcommand {\beamer@subsectionpages {3}{3}}}
\@writefile{nav}{\headcommand {\beamer@subsectionentry {0}{1}{1}{4}{Introducción}}}
\@writefile{nav}{\headcommand {\slideentry {1}{1}{1}{4/4}{Introducción}{0}}}
\@writefile{nav}{\headcommand {\beamer@framepages {4}{4}}}
\citation{Zhu2013}
\citation{Zhu2013}
\citation{Zhu2013}
\@writefile{nav}{\headcommand {\slideentry {1}{1}{2}{5/7}{Introducción}{0}}}
\@writefile{nav}{\headcommand {\beamer@framepages {5}{7}}}
\@writefile{toc}{\beamer@subsectionintoc {1}{2}{Objetivos}{8}{0}{1}}
\@writefile{nav}{\headcommand {\beamer@subsectionpages {4}{7}}}
\@writefile{nav}{\headcommand {\beamer@subsectionentry {0}{1}{2}{8}{Objetivos}}}
\@writefile{nav}{\headcommand {\slideentry {1}{2}{1}{8/8}{Objetivos}{0}}}
\@writefile{nav}{\headcommand {\beamer@framepages {8}{8}}}
\@writefile{nav}{\headcommand {\slideentry {1}{2}{2}{9/11}{Objetivos}{0}}}
\@writefile{nav}{\headcommand {\beamer@framepages {9}{11}}}
\@writefile{toc}{\beamer@subsectionintoc {1}{3}{Antecedentes}{12}{0}{1}}
\@writefile{nav}{\headcommand {\beamer@subsectionpages {8}{11}}}
\@writefile{nav}{\headcommand {\beamer@subsectionentry {0}{1}{3}{12}{Antecedentes}}}
\@writefile{nav}{\headcommand {\slideentry {1}{3}{1}{12/12}{Antecedentes}{0}}}
\@writefile{nav}{\headcommand {\beamer@framepages {12}{12}}}
\citation{Tian_Liang_2008}
\citation{Li_2009}
\citation{Wang2020}
\citation{Tian_Liang_2008}
\citation{Li_2009}
\citation{Wang2020}
\citation{Tian_Liang_2008}
\citation{Li_2009}
\citation{Wang2020}
\@writefile{nav}{\headcommand {\slideentry {1}{3}{2}{13/15}{Antecedentes}{0}}}
\@writefile{nav}{\headcommand {\beamer@framepages {13}{15}}}
\@writefile{toc}{\beamer@sectionintoc {2}{Oscilador de Duffing}{16}{0}{2}}
\@writefile{nav}{\headcommand {\beamer@sectionpages {3}{15}}}
\@writefile{nav}{\headcommand {\beamer@subsectionpages {12}{15}}}
\@writefile{nav}{\headcommand {\sectionentry {2}{Oscilador de Duffing}{16}{Oscilador de Duffing}{0}}}
\@writefile{nav}{\headcommand {\slideentry {2}{0}{1}{16/16}{}{0}}}
\@writefile{nav}{\headcommand {\beamer@framepages {16}{16}}}
\@writefile{nav}{\headcommand {\slideentry {2}{0}{2}{17/19}{}{0}}}
\@writefile{nav}{\headcommand {\beamer@framepages {17}{19}}}
\@writefile{toc}{\beamer@sectionintoc {3}{Detección de señal débil utilizando el oscilador de Duffing}{20}{0}{3}}
\@writefile{nav}{\headcommand {\beamer@sectionpages {16}{19}}}
\@writefile{nav}{\headcommand {\beamer@subsectionpages {16}{19}}}
\@writefile{nav}{\headcommand {\sectionentry {3}{Detección de señal débil utilizando el oscilador de Duffing}{20}{Detección de señal débil utilizando el oscilador de Duffing}{0}}}
\@writefile{nav}{\headcommand {\slideentry {3}{0}{1}{20/20}{}{0}}}
\@writefile{nav}{\headcommand {\beamer@framepages {20}{20}}}
\@writefile{toc}{\beamer@subsectionintoc {3}{1}{Detección de señal débil utilizando el oscilador de Duffing}{21}{0}{3}}
\@writefile{nav}{\headcommand {\beamer@subsectionpages {20}{20}}}
\@writefile{nav}{\headcommand {\beamer@subsectionentry {0}{3}{1}{21}{Detección de señal débil utilizando el oscilador de Duffing}}}
\@writefile{nav}{\headcommand {\slideentry {3}{1}{1}{21/21}{Detección de señal débil utilizando el oscilador de Duffing}{0}}}
\@writefile{nav}{\headcommand {\beamer@framepages {21}{21}}}
\@writefile{nav}{\headcommand {\slideentry {3}{1}{2}{22/25}{Detección de señal débil utilizando el oscilador de Duffing}{0}}}
\@writefile{nav}{\headcommand {\beamer@framepages {22}{25}}}
\@writefile{toc}{\beamer@subsectionintoc {3}{2}{Calculo del umbral de cambio de estado}{26}{0}{3}}
\@writefile{nav}{\headcommand {\beamer@subsectionpages {21}{25}}}
\@writefile{nav}{\headcommand {\beamer@subsectionentry {0}{3}{2}{26}{Calculo del umbral de cambio de estado}}}
\@writefile{nav}{\headcommand {\slideentry {3}{2}{1}{26/26}{Calculo del umbral de cambio de estado}{0}}}
\@writefile{nav}{\headcommand {\beamer@framepages {26}{26}}}
\@writefile{nav}{\headcommand {\slideentry {3}{2}{2}{27/32}{Calculo del umbral de cambio de estado}{0}}}
\@writefile{nav}{\headcommand {\beamer@framepages {27}{32}}}
\@writefile{nav}{\headcommand {\slideentry {3}{2}{3}{33/36}{Calculo del umbral de cambio de estado}{0}}}
\@writefile{nav}{\headcommand {\beamer@framepages {33}{36}}}
\@writefile{nav}{\headcommand {\slideentry {3}{2}{4}{37/37}{Calculo del umbral de cambio de estado}{0}}}
\@writefile{nav}{\headcommand {\beamer@framepages {37}{37}}}
\@writefile{nav}{\headcommand {\slideentry {3}{2}{5}{38/38}{Calculo del umbral de cambio de estado}{0}}}
\@writefile{nav}{\headcommand {\beamer@framepages {38}{38}}}
\@writefile{nav}{\headcommand {\slideentry {3}{2}{6}{39/39}{Calculo del umbral de cambio de estado}{0}}}
\@writefile{nav}{\headcommand {\beamer@framepages {39}{39}}}
\@writefile{toc}{\beamer@subsectionintoc {3}{3}{Implementación de la señal de entrada y ruido en la ecuación de Duffing}{40}{0}{3}}
\@writefile{nav}{\headcommand {\beamer@subsectionpages {26}{39}}}
\@writefile{nav}{\headcommand {\beamer@subsectionentry {0}{3}{3}{40}{Implementación de la señal de entrada y ruido en la ecuación de Duffing}}}
\@writefile{nav}{\headcommand {\slideentry {3}{3}{1}{40/40}{Implementación de la señal de entrada y ruido en la ecuación de Duffing}{0}}}
\@writefile{nav}{\headcommand {\beamer@framepages {40}{40}}}
\@writefile{nav}{\headcommand {\slideentry {3}{3}{2}{41/46}{Implementación de la señal de entrada y ruido en la ecuación de Duffing}{0}}}
\@writefile{nav}{\headcommand {\beamer@framepages {41}{46}}}
\@writefile{nav}{\headcommand {\slideentry {3}{3}{3}{47/48}{Implementación de la señal de entrada y ruido en la ecuación de Duffing}{0}}}
\@writefile{nav}{\headcommand {\beamer@framepages {47}{48}}}
\@writefile{toc}{\beamer@sectionintoc {4}{Doble acoplamiento del oscilador de Duffing}{49}{0}{4}}
\@writefile{nav}{\headcommand {\beamer@sectionpages {20}{48}}}
\@writefile{nav}{\headcommand {\beamer@subsectionpages {40}{48}}}
\@writefile{nav}{\headcommand {\sectionentry {4}{Doble acoplamiento del oscilador de Duffing}{49}{Doble acoplamiento del oscilador de Duffing}{0}}}
\@writefile{nav}{\headcommand {\slideentry {4}{0}{1}{49/49}{}{0}}}
\@writefile{nav}{\headcommand {\beamer@framepages {49}{49}}}
\citation{Jothimurugan_2015}
\citation{Jothimurugan_2015}
\@writefile{nav}{\headcommand {\slideentry {4}{0}{2}{50/51}{}{0}}}
\@writefile{nav}{\headcommand {\beamer@framepages {50}{51}}}
\@writefile{nav}{\headcommand {\slideentry {4}{0}{3}{52/52}{}{0}}}
\@writefile{nav}{\headcommand {\beamer@framepages {52}{52}}}
\@writefile{toc}{\beamer@sectionintoc {5}{Conclusión}{53}{0}{5}}
\@writefile{nav}{\headcommand {\beamer@sectionpages {49}{52}}}
\@writefile{nav}{\headcommand {\beamer@subsectionpages {49}{52}}}
\@writefile{nav}{\headcommand {\sectionentry {5}{Conclusión}{53}{Conclusión}{0}}}
\@writefile{nav}{\headcommand {\slideentry {5}{0}{1}{53/53}{}{0}}}
\@writefile{nav}{\headcommand {\beamer@framepages {53}{53}}}
\@writefile{nav}{\headcommand {\slideentry {5}{0}{2}{54/56}{}{0}}}
\@writefile{nav}{\headcommand {\beamer@framepages {54}{56}}}
\@writefile{toc}{\beamer@sectionintoc {6}{Bibliografía}{57}{0}{6}}
\@writefile{nav}{\headcommand {\beamer@sectionpages {53}{56}}}
\@writefile{nav}{\headcommand {\beamer@subsectionpages {53}{56}}}
\@writefile{nav}{\headcommand {\sectionentry {6}{Bibliografía}{57}{Bibliografía}{0}}}
\@writefile{nav}{\headcommand {\slideentry {6}{0}{1}{57/57}{}{0}}}
\@writefile{nav}{\headcommand {\beamer@framepages {57}{57}}}
\bibdata{bibliografia}
\bibcite{Jothimurugan_2015}{\hyperlink {beamerbibJothimurugan_2015}{1}}
\bibcite{Li_2009}{\hyperlink {beamerbibLi_2009}{2}}
\bibcite{Tian_Liang_2008}{\hyperlink {beamerbibTian_Liang_2008}{3}}
\bibcite{Wang2020}{\hyperlink {beamerbibWang2020}{4}}
\bibcite{Zhu2013}{\hyperlink {beamerbibZhu2013}{5}}
\@writefile{nav}{\headcommand {\slideentry {6}{0}{2}{58/58}{}{0}}}
\@writefile{nav}{\headcommand {\beamer@framepages {58}{58}}}
\@writefile{nav}{\headcommand {\beamer@partpages {1}{58}}}
\@writefile{nav}{\headcommand {\beamer@subsectionpages {57}{58}}}
\@writefile{nav}{\headcommand {\beamer@sectionpages {57}{58}}}
\@writefile{nav}{\headcommand {\beamer@documentpages {58}}}
\@writefile{nav}{\headcommand {\gdef \inserttotalframenumber {30}}}
