This is BibTeX, Version 0.99d (TeX Live 2019/Debian)
Capacity: max_strings=200000, hash_size=200000, hash_prime=170003
The top-level auxiliary file: main.aux
The style file: plain.bst
Database file #1: bibliografia.bib
You've used 5 entries,
            2118 wiz_defined-function locations,
            536 strings with 4993 characters,
and the built_in function-call counts, 1600 in all, are:
= -- 149
> -- 78
< -- 0
+ -- 32
- -- 26
* -- 118
:= -- 277
add.period$ -- 17
call.type$ -- 5
change.case$ -- 27
chr.to.int$ -- 0
cite$ -- 5
duplicate$ -- 62
empty$ -- 134
format.name$ -- 26
if$ -- 329
int.to.chr$ -- 0
int.to.str$ -- 5
missing$ -- 6
newline$ -- 28
num.names$ -- 10
pop$ -- 34
preamble$ -- 1
purify$ -- 23
quote$ -- 0
skip$ -- 33
stack$ -- 0
substring$ -- 75
swap$ -- 7
text.length$ -- 0
text.prefix$ -- 0
top$ -- 0
type$ -- 18
warning$ -- 0
while$ -- 13
width$ -- 6
write$ -- 56
