\relax 
\providecommand\hyper@newdestlabel[2]{}
\bibdata{bibliografia}
\bibcite{Jothimurugan_2015}{{1}{2015}{{Jothimurugan et~al.}}{{}}}
\bibcite{Duf}{{2}{2008}{{Jürgen et~al.}}{{}}}
\bibcite{Li_2009}{{3}{2009}{{Li y Shen}}{{}}}
\bibcite{Liu_2019}{{4}{2019}{{Liu y Wang}}{{}}}
\bibcite{Tian_Liang_2008}{{5}{2008}{{Tian-liang}}{{}}}
\bibcite{Wang2020}{{6}{2020a}{{Wang et~al.}}{{}}}
\bibcite{Wang_2020}{{7}{2020b}{{Wang et~al.}}{{}}}
\bibcite{Yang_2019}{{8}{2019}{{Yang et~al.}}{{}}}
\@writefile{toc}{\contentsline {chapter}{8. REFERENCIAS BIBLIOGRÁFICAS}{29}{section*.5}\protected@file@percent }
\@setckpt{bibliografia}{
\setcounter{page}{30}
\setcounter{equation}{0}
\setcounter{enumi}{0}
\setcounter{enumii}{0}
\setcounter{enumiii}{0}
\setcounter{enumiv}{0}
\setcounter{footnote}{0}
\setcounter{mpfootnote}{0}
\setcounter{part}{0}
\setcounter{chapter}{6}
\setcounter{section}{0}
\setcounter{subsection}{0}
\setcounter{subsubsection}{0}
\setcounter{paragraph}{0}
\setcounter{subparagraph}{0}
\setcounter{figure}{0}
\setcounter{table}{0}
\setcounter{parentequation}{0}
\setcounter{float@type}{4}
\setcounter{Item}{0}
\setcounter{Hfootnote}{0}
\setcounter{bookmark@seq@number}{44}
\setcounter{NAT@ctr}{8}
\setcounter{section@level}{0}
}
