\relax 
\providecommand\hyper@newdestlabel[2]{}
\@writefile{toc}{\contentsline {chapter}{\numberline {4}DISEÑO METODOLÓGICO}{25}{chapter.4}\protected@file@percent }
\@writefile{lof}{\addvspace {10\p@ }}
\@writefile{lot}{\addvspace {10\p@ }}
\@writefile{toc}{\contentsline {section}{\numberline {4.1}Tipo y diseño de investigación}{25}{section.4.1}\protected@file@percent }
\@writefile{toc}{\contentsline {section}{\numberline {4.2}Método de investigación}{25}{section.4.2}\protected@file@percent }
\@writefile{toc}{\contentsline {section}{\numberline {4.3}Población y muestra}{25}{section.4.3}\protected@file@percent }
\@writefile{toc}{\contentsline {section}{\numberline {4.4}Lugar de estudio}{25}{section.4.4}\protected@file@percent }
\@writefile{toc}{\contentsline {section}{\numberline {4.5}Técnica e instrumentos para la recolección de la información}{26}{section.4.5}\protected@file@percent }
\@writefile{toc}{\contentsline {subsection}{\numberline {4.5.1}Quite Universal Circuit Simulator (Qucs-S)}{26}{subsection.4.5.1}\protected@file@percent }
\@writefile{toc}{\contentsline {section}{\numberline {4.6}Análisis y procesamiento de datos}{26}{section.4.6}\protected@file@percent }
\@setckpt{dmetodologico}{
\setcounter{page}{27}
\setcounter{equation}{0}
\setcounter{enumi}{0}
\setcounter{enumii}{0}
\setcounter{enumiii}{0}
\setcounter{enumiv}{0}
\setcounter{footnote}{0}
\setcounter{mpfootnote}{0}
\setcounter{part}{0}
\setcounter{chapter}{4}
\setcounter{section}{6}
\setcounter{subsection}{0}
\setcounter{subsubsection}{0}
\setcounter{paragraph}{0}
\setcounter{subparagraph}{0}
\setcounter{figure}{0}
\setcounter{table}{0}
\setcounter{parentequation}{0}
\setcounter{float@type}{4}
\setcounter{Item}{0}
\setcounter{Hfootnote}{0}
\setcounter{bookmark@seq@number}{41}
\setcounter{NAT@ctr}{0}
\setcounter{section@level}{0}
}
