\relax 
\providecommand\hyper@newdestlabel[2]{}
\citation{Tian_Liang_2008}
\citation{Li_2009}
\citation{Liu_2019}
\@writefile{toc}{\contentsline {chapter}{\numberline {2}MARCO TEÓRICO}{10}{chapter.2}\protected@file@percent }
\@writefile{lof}{\addvspace {10\p@ }}
\@writefile{lot}{\addvspace {10\p@ }}
\@writefile{toc}{\contentsline {section}{\numberline {2.1}Antecedente}{10}{section.2.1}\protected@file@percent }
\@writefile{toc}{\contentsline {subsection}{\numberline {2.1.1}Internacional}{10}{subsection.2.1.1}\protected@file@percent }
\citation{Yang_2019}
\citation{Wang2020}
\citation{Wang_2020}
\citation{Duf}
\@writefile{toc}{\contentsline {subsection}{\numberline {2.1.2}Nacional}{12}{subsection.2.1.2}\protected@file@percent }
\@writefile{toc}{\contentsline {section}{\numberline {2.2}Bases teóricas}{12}{section.2.2}\protected@file@percent }
\@writefile{toc}{\contentsline {subsection}{\numberline {2.2.1}Oscilador de Duffing}{12}{subsection.2.2.1}\protected@file@percent }
\@writefile{toc}{\contentsline {subsection}{\numberline {2.2.2}Teoría de detección de señales débiles}{13}{subsection.2.2.2}\protected@file@percent }
\@writefile{toc}{\contentsline {section}{\numberline {2.3}Conceptual}{14}{section.2.3}\protected@file@percent }
\@writefile{toc}{\contentsline {subsection}{\numberline {2.3.1}Oscilador de Duffing para la detección de señales débiles}{14}{subsection.2.3.1}\protected@file@percent }
\@writefile{lof}{\contentsline {figure}{\numberline {2.1}{\ignorespaces (a) $\gamma =0.3$ Órbita homoclínica }}{16}{figure.2.1}\protected@file@percent }
\@writefile{lof}{\contentsline {figure}{\numberline {2.2}{\ignorespaces (b) $\gamma =0.42$ Bifurcación }}{17}{figure.2.2}\protected@file@percent }
\@writefile{lof}{\contentsline {figure}{\numberline {2.3}{\ignorespaces (c) $\gamma =0.68$ Caos }}{17}{figure.2.3}\protected@file@percent }
\@writefile{lof}{\contentsline {figure}{\numberline {2.4}{\ignorespaces (d) $\gamma =0.827$ Gran escala periódica }}{18}{figure.2.4}\protected@file@percent }
\citation{Jothimurugan_2015}
\@writefile{toc}{\contentsline {subsection}{\numberline {2.3.2}Doble acoplamiento del oscilador de Duffing}{20}{subsection.2.3.2}\protected@file@percent }
\@writefile{lof}{\contentsline {figure}{\numberline {2.5}{\ignorespaces frecuencia de resonancia y antiresonancia}}{21}{figure.2.5}\protected@file@percent }
\@writefile{toc}{\contentsline {section}{\numberline {2.4}Definición de términos básicos}{21}{section.2.4}\protected@file@percent }
\@setckpt{mteorico}{
\setcounter{page}{23}
\setcounter{equation}{20}
\setcounter{enumi}{0}
\setcounter{enumii}{0}
\setcounter{enumiii}{0}
\setcounter{enumiv}{0}
\setcounter{footnote}{0}
\setcounter{mpfootnote}{0}
\setcounter{part}{0}
\setcounter{chapter}{2}
\setcounter{section}{4}
\setcounter{subsection}{0}
\setcounter{subsubsection}{0}
\setcounter{paragraph}{0}
\setcounter{subparagraph}{0}
\setcounter{figure}{5}
\setcounter{table}{0}
\setcounter{parentequation}{0}
\setcounter{float@type}{4}
\setcounter{Item}{0}
\setcounter{Hfootnote}{0}
\setcounter{bookmark@seq@number}{25}
\setcounter{NAT@ctr}{0}
\setcounter{section@level}{0}
}
