\relax 
\providecommand\hyper@newdestlabel[2]{}
\@writefile{toc}{\contentsline {chapter}{\numberline {1}PLANTEAMIENTO DEL PROBLEMA}{7}{chapter.1}\protected@file@percent }
\@writefile{lof}{\addvspace {10\p@ }}
\@writefile{lot}{\addvspace {10\p@ }}
\@writefile{toc}{\contentsline {section}{\numberline {1.1}Descripción de la realidad problemática}{7}{section.1.1}\protected@file@percent }
\@writefile{toc}{\contentsline {section}{\numberline {1.2}Formulación del problema}{7}{section.1.2}\protected@file@percent }
\@writefile{toc}{\contentsline {subsection}{\numberline {1.2.1}Problema general}{7}{subsection.1.2.1}\protected@file@percent }
\@writefile{toc}{\contentsline {subsection}{\numberline {1.2.2}Problemas específicos}{8}{subsection.1.2.2}\protected@file@percent }
\@writefile{toc}{\contentsline {section}{\numberline {1.3}Objetivos}{8}{section.1.3}\protected@file@percent }
\@writefile{toc}{\contentsline {subsection}{\numberline {1.3.1}Objetivo general}{8}{subsection.1.3.1}\protected@file@percent }
\@writefile{toc}{\contentsline {subsection}{\numberline {1.3.2}Objetivos específicos}{8}{subsection.1.3.2}\protected@file@percent }
\@writefile{toc}{\contentsline {section}{\numberline {1.4}Justificación}{8}{section.1.4}\protected@file@percent }
\@writefile{toc}{\contentsline {section}{\numberline {1.5}Limitantes de la investigación}{9}{section.1.5}\protected@file@percent }
\@writefile{toc}{\contentsline {subsection}{\numberline {1.5.1}Teórica}{9}{subsection.1.5.1}\protected@file@percent }
\@writefile{toc}{\contentsline {subsection}{\numberline {1.5.2}Temporal}{9}{subsection.1.5.2}\protected@file@percent }
\@writefile{toc}{\contentsline {subsection}{\numberline {1.5.3}Espacial}{9}{subsection.1.5.3}\protected@file@percent }
\@setckpt{pproblema}{
\setcounter{page}{10}
\setcounter{equation}{0}
\setcounter{enumi}{0}
\setcounter{enumii}{0}
\setcounter{enumiii}{0}
\setcounter{enumiv}{0}
\setcounter{footnote}{0}
\setcounter{mpfootnote}{0}
\setcounter{part}{0}
\setcounter{chapter}{1}
\setcounter{section}{5}
\setcounter{subsection}{3}
\setcounter{subsubsection}{0}
\setcounter{paragraph}{0}
\setcounter{subparagraph}{0}
\setcounter{figure}{0}
\setcounter{table}{0}
\setcounter{parentequation}{0}
\setcounter{float@type}{4}
\setcounter{Item}{0}
\setcounter{Hfootnote}{0}
\setcounter{bookmark@seq@number}{14}
\setcounter{NAT@ctr}{0}
\setcounter{section@level}{0}
}
